{
	"1":[
		{
			"brand":"Galeries Lafayette",
			"product":"Pochettes et porte-carte",
			"goforgood": true, 
			"description":"Brillez de mille feux avec ce lot de maroquinerie plus responsable, issu de la marque Galeries Lafayette pensé pour faire de vous l’étoile la plus brillante du firmament.",
			"src":"https://static.galerieslafayette.com/media/LP/src/img/2022/landing/calendrier-de-l-avent/lots/01-lot-gl.png",
			"srcset":"https://static.galerieslafayette.com/media/LP/src/img/2022/landing/calendrier-de-l-avent/lots/01-lot-gl@2x.png",
			"value":"Lot d’une valeur de 160€"
		}
	],
	"2":[
		{
			"brand":"La Redoute Intérieurs",
			"product":"Parure de lit",
			"goforgood": true, 
			"description":"Plongez dans les plus douces des nuits avec une parure de lit en coton biologique destinée à faire de vos songes un enchantement et de vos réveils un rêve éveillé.",
			"src":"https://static.galerieslafayette.com/media/LP/src/img/2022/landing/calendrier-de-l-avent/lots/02-la-redoute.png",
			"srcset":"https://static.galerieslafayette.com/media/LP/src/img/2022/landing/calendrier-de-l-avent/lots/02-la-redoute@2x.png",
			"value":"Lot d’une valeur de 120€"
		}
	],
	"3":[
		{
			"brand":"Claudie Pierlot",
			"product":"Tenue en cuir",
			"goforgood": false, 
			"description":"Stylée des pieds à la tête ! Claudie Pierlot conjugue le chic à l’esprit rock avec cette tenue de cuir à décliner de réceptions en soirées mondaines.",
			"src":"https://static.galerieslafayette.com/media/LP/src/img/2022/landing/calendrier-de-l-avent/lots/03-claudie-pierlot.png",
			"srcset":"https://static.galerieslafayette.com/media/LP/src/img/2022/landing/calendrier-de-l-avent/lots/03-claudie-pierlot@2x.png",
			"value":"Lot d’une valeur de 1155€"
		}
	],
	"4":[
		{
			"brand":"Restaurant Petrossian",
			"product":"Déjeuner pour deux personnes",
			"goforgood": false, 
			"description":"Toute la magie du grand nord à portée de fourchette : telle est la promesse de ce déjeuner au sein du mythique restaurant Petrossian, placé sous les auspices du caviar.",
			"src":"https://static.galerieslafayette.com/media/LP/src/img/2022/landing/calendrier-de-l-avent/lots/04-petrossian.png",
			"srcset":"https://static.galerieslafayette.com/media/LP/src/img/2022/landing/calendrier-de-l-avent/lots/04-petrossian@2x.png",
			"value":"Lot d’une valeur de 150€"
		}
	],
	"5":[
		{
			"brand":"Royal Fern",
			"product":"Serum Magique",
			"goforgood": false, 
			"description":"Parce que votre peau mérite ce qu’elle a de meilleur, le sérum magique Royal Fern vous offre en un coup de baguette jeunesse naturelle et beauté éternelle.",
			"src":"https://static.galerieslafayette.com/media/LP/src/img/2022/landing/calendrier-de-l-avent/lots/05-royal-fern.png",
			"srcset":"https://static.galerieslafayette.com/media/LP/src/img/2022/landing/calendrier-de-l-avent/lots/05-royal-fern@2x.png",
			"value":"Lot d’une valeur de 250€"
		}
	],
	"6":[
		{
			"brand":"Ralph Lauren",
			"product":"Sweat à capuche homme",
			"goforgood": false, 
			"description":"Pour passer l’hiver en douceur et s'emmitoufler dans une pièce aussi nostalgique que réconfortante, le sweat à capuche Polo Bear de Polo Ralph Lauren est l’allié idéal des jours gris.",
			"src":"https://static.galerieslafayette.com/media/LP/src/img/2022/landing/calendrier-de-l-avent/lots/06-polo-ralph-lauren.png",
			"srcset":"https://static.galerieslafayette.com/media/LP/src/img/2022/landing/calendrier-de-l-avent/lots/06-polo-ralph-lauren@2x.png",
			"value":"Lot d’une valeur de 249€"
		}
	],
	"7":[
		{
			"brand":"Lancaster",
			"product":"Sac besace",
			"goforgood": false, 
			"description":"La maison Lancaster parle aux désirs de toutes les femmes avec ce sac pensé pour toutes les occasions de la vie.",
			"src":"https://static.galerieslafayette.com/media/LP/src/img/2022/landing/calendrier-de-l-avent/lots/07-lancaster.png",
			"srcset":"https://static.galerieslafayette.com/media/LP/src/img/2022/landing/calendrier-de-l-avent/lots/07-lancaster@2x.png",
			"value":"Lot d’une valeur de 175€"
		}
	],
	"8":[
		{
			"brand":"Hotel Mob House",
			"product":"2 nuits pour 2 personnes",
			"goforgood": false, 
			"description":"Deux nuits en suite, petits-déjeuners, dîners et cocktails pour conjuguer au pluriel l’hédonisme et la joie de l’hôtel parisien Mob House.",
			"src":"https://static.galerieslafayette.com/media/LP/src/img/2022/landing/calendrier-de-l-avent/lots/08-hotel-mob-house.png",
			"srcset":"https://static.galerieslafayette.com/media/LP/src/img/2022/landing/calendrier-de-l-avent/lots/08-hotel-mob-house@2x.png",
			"value":"Lot d’une valeur de 630€"
		}
	],
	"9":[
		{
			"brand":"Jonak",
			"product":"Bottines en cuir",
			"goforgood": false, 
			"description":"Ces jolies bottines Jonak vous feront danser jusqu’au bout de la nuit, glisser sur le bitume et sauter à pieds joints dans une flaque de bonheur.",
			"src":"https://static.galerieslafayette.com/media/LP/src/img/2022/landing/calendrier-de-l-avent/lots/09-jonak.png",
			"srcset":"https://static.galerieslafayette.com/media/LP/src/img/2022/landing/calendrier-de-l-avent/lots/09-jonak@2x.png",
			"value":"Lot d’une valeur de 155€"
		}
	],
	"10":[
		{
			"brand":"La petite chineuse",
			"product":"150€ de shopping",
			"goforgood": true, 
			"description":"Parce que les hits d'hier sont les icônes de demain, parez votre vestiaire d'une touche de vintage sur une palette de mode circulaire chez Petite Chineuse.",
			"src":"https://static.galerieslafayette.com/media/LP/src/img/2022/landing/calendrier-de-l-avent/lots/10-petite-chineuse.png",
			"srcset":"https://static.galerieslafayette.com/media/LP/src/img/2022/landing/calendrier-de-l-avent/lots/10-petite-chineuse@2x.png",
			"value":"Lot d’une valeur de 150€"
		}
	],
	"11":[
		{
			"brand":"The Line",
			"product":"Décorations murales skyline de Paris",
			"goforgood": true, 
			"description":"Pour le plus urbain des intérieurs, offrez-vous une bouffée de Paris avec les décorations murales The Line, fabriquées en France.",
			"src":"https://static.galerieslafayette.com/media/LP/src/img/2022/landing/calendrier-de-l-avent/lots/11-theline.png",
			"srcset":"https://static.galerieslafayette.com/media/LP/src/img/2022/landing/calendrier-de-l-avent/lots/11-theline@2x.png",
			"value":"Lot d’une valeur de 153€"
		}
	],
	"12":[
		{
			"brand":"Salut Salut",
			"product":"Mini tote bag",
			"goforgood": true, 
			"description":"Plus qu’une matière et une couleur, le lamé doré est une déclaration de style, le credo des jours heureux et une invitation à rêver la vie haut et fort grâce à ce mini tote bag lamé Salut Salut.",
			"src":"https://static.galerieslafayette.com/media/LP/src/img/2022/landing/calendrier-de-l-avent/lots/12-tote-dore.png",
			"srcset":"https://static.galerieslafayette.com/media/LP/src/img/2022/landing/calendrier-de-l-avent/lots/12-tote-dore@2x.png",
			"value":"Lot d’une valeur de 195€"
		}
	],
	"13":[
		{
			"brand":"Lacoste",
			"product":"Polo homme",
			"goforgood": true, 
			"description":"Lignes parfaites et conception plus responsable, ce polo Lacoste est un passeport pour le style comme pour le mieux vivre.",
			"src":"https://static.galerieslafayette.com/media/LP/src/img/2022/landing/calendrier-de-l-avent/lots/13-lacoste.png",
			"srcset":"https://static.galerieslafayette.com/media/LP/src/img/2022/landing/calendrier-de-l-avent/lots/13-lacoste@2x.png",
			"value":"Lot d’une valeur de 150€"
		}
	],
	"14":[
		{
			"brand":"Sylvanian",
			"product":"Lot de jouets",
			"goforgood": false, 
			"description":"Pour le plus féérique des Noëls, Sylvanian offre un lot de jouets pour faire rêver les enfants et leur offrir un réveillon magique.",
			"src":"https://static.galerieslafayette.com/media/LP/src/img/2022/landing/calendrier-de-l-avent/lots/14-sylvannian.png",
			"srcset":"https://static.galerieslafayette.com/media/LP/src/img/2022/landing/calendrier-de-l-avent/lots/14-sylvannian@2x.png",
			"value":"Lot d’une valeur de 155€"
		}
	],
	"15":[
		{
			"brand":"Hôtel Fouquet’s",
			"product":"Nuit d'exception et accès spa",
			"goforgood": false, 
			"description":"Divine escapade : laissez vos sens s'embraser à la faveur d'une nuit d'exception dans la suite Harcourt Paris du Fouquet's, et profitez du mythique spa de l'hôtel.",
			"src":"https://static.galerieslafayette.com/media/LP/src/img/2022/landing/calendrier-de-l-avent/lots/15-hotel-fouquets.png",
			"srcset":"https://static.galerieslafayette.com/media/LP/src/img/2022/landing/calendrier-de-l-avent/lots/15-hotel-fouquets@2x.png",
			"value":"Lot d’une valeur de 20 000€"
		}
	],
	"16":[
		{
			"brand":"Sophie d’Agon",
			"product":"Bague Gaia",
			"goforgood": true, 
			"description":"Portez haut les couleurs de la création plus responsable avec la bague Gaia en or recyclé de la sélection Go for Good de la créatrice Sophie d’Agon.",
			"src":"https://static.galerieslafayette.com/media/LP/src/img/2022/landing/calendrier-de-l-avent/lots/16-sophie-dagon.png",
			"srcset":"https://static.galerieslafayette.com/media/LP/src/img/2022/landing/calendrier-de-l-avent/lots/16-sophie-dagon@2x.png",
			"value":"Lot d’une valeur de 695€"
		}
	],
	"17":[
		{
			"brand":"Innerskin",
			"product":"Soin hydrafacial signature",
			"goforgood": false, 
			"description":"Pour offrir à votre peau un bain de bien-être et de jouvence, une prestation pensée pour le rayonnement de votre beauté !",
			"src":"https://static.galerieslafayette.com/media/LP/src/img/2022/landing/calendrier-de-l-avent/lots/17-innerskin.png",
			"srcset":"https://static.galerieslafayette.com/media/LP/src/img/2022/landing/calendrier-de-l-avent/lots/17-innerskin@2x.png",
			"value":"Lot d’une valeur de 180€"
		}
	],
	"18":[
		{
			"brand":"UGG",
			"product":"Mules en cuir retourné",
			"goforgood": true, 
			"description":"Pour le plus confortable et stylé des hivers, les mules UGG en cuir retourné et fibres tencel vous promettent un look renversant et plus responsable.",
			"src":"https://static.galerieslafayette.com/media/LP/src/img/2022/landing/calendrier-de-l-avent/lots/18-ugg.png",
			"srcset":"https://static.galerieslafayette.com/media/LP/src/img/2022/landing/calendrier-de-l-avent/lots/18-ugg@2x.png",
			"value":"Lot d’une valeur de 120€"
		}
	],
	"19":[
		{
			"brand":"Carrière Frères",
			"product":"Bougie, diffuseur et palet botanique",
			"goforgood": true, 
			"description":"Pour éveiller vos sens aux odeurs de Noël, plongez dans les délices de ce kit de senteurs aux mille parfums en cire 100% naturelle.",
			"src":"https://static.galerieslafayette.com/media/LP/src/img/2022/landing/calendrier-de-l-avent/lots/19-carriere-freres.png",
			"srcset":"https://static.galerieslafayette.com/media/LP/src/img/2022/landing/calendrier-de-l-avent/lots/19-carriere-freres@2x.png",
			"value":"Lot d’une valeur de 153€"
		}
	],
	"20":[
		{
			"brand":"Winky",
			"product":"Robot compagnon de jeu",
			"goforgood": false, 
			"description":"Par amour du Kawaii et pour le plus high-tech des Noëls, offrez à vos enfants un robot ludique et éducatif !",
			"src":"https://static.galerieslafayette.com/media/LP/src/img/2022/landing/calendrier-de-l-avent/lots/20-winky.png",
			"srcset":"https://static.galerieslafayette.com/media/LP/src/img/2022/landing/calendrier-de-l-avent/lots/20-winky@2x.png",
			"value":"Lot d’une valeur de 199€"
		}
	],
	"21":[
		{
			"brand":"Circle",
			"product":"Hoodie et Jogging",
			"goforgood": true, 
			"description":"Pour un style urbain affranchi des normes et des complexes, enveloppez-vous dans un ensemble plein d’amour signé Circle en tencel et matière recyclée (min. 50%).",
			"src":"https://static.galerieslafayette.com/media/LP/src/img/2022/landing/calendrier-de-l-avent/lots/21-circle.png",
			"srcset":"https://static.galerieslafayette.com/media/LP/src/img/2022/landing/calendrier-de-l-avent/lots/21-circle@2x.png",
			"value":"Lot d’une valeur de 278€"
		}
	],
	"22":[
		{
			"brand":"Resap x Studio Rosalie",
			"product":"Sac et blouse",
			"goforgood": true, 
			"description":"Pour un look empreint de douceur, Resap et Studio Rosalie s’unissent pour offrir le plus tendre des Noëls avec un sac et une blouse à la pointe des tendances et en matières upcyclées.",
			"src":"https://static.galerieslafayette.com/media/LP/src/img/2022/landing/calendrier-de-l-avent/lots/22-re-store.png",
			"srcset":"https://static.galerieslafayette.com/media/LP/src/img/2022/landing/calendrier-de-l-avent/lots/22-re-store@2x.png",
			"value":"Lot d’une valeur de 260€"
		}
	],
	"23":[
		{
			"brand":"Augustinus Bader",
			"product":"Kit nourrissant",
			"goforgood": false, 
			"description":"Donnez à votre peau toute la tendresse qu’elle mérite grâce aux soins anti-âge d’exception Augustinus Bader et à ce kit nourrissant créateur de bien-être.",
			"src":"https://static.galerieslafayette.com/media/LP/src/img/2022/landing/calendrier-de-l-avent/lots/23-augustinus-bader.png",
			"srcset":"https://static.galerieslafayette.com/media/LP/src/img/2022/landing/calendrier-de-l-avent/lots/23-augustinus-bader@2x.png",
			"value":"Lot d’une valeur de 180€"
		}
	],
	"24":[
		{
			"brand":"Hôtel Widder et Hôtel Whitepod",
			"product":"Voyage féérique en Suisse",
			"goforgood": false, 
			"description":"Laissez-vous porter par la magie d’hôtels d’exception pour goûter aux charmes naturels de la Suisse grâce à un voyage tout compris.",
			"src":"https://static.galerieslafayette.com/media/LP/src/img/2022/landing/calendrier-de-l-avent/lots/24-voyage-suisse.png",
			"srcset":"https://static.galerieslafayette.com/media/LP/src/img/2022/landing/calendrier-de-l-avent/lots/24-voyage-suisse@2x.png",
			"value":"Lot d’une valeur de 2400€"
		}
	]
}
